example_v2/session.log
#-----------------------------------------------------------
# xsim v2021.1 (64-bit)
# SW Build 3247384 on Thu Jun 10 19:36:07 MDT 2021
# IP Build 3246043 on Fri Jun 11 00:30:35 MDT 2021
# Start of session at: Sun Jan  2 15:26:58 2022
# Process ID: 28993
# Current directory: /home/imocanu/Public/PycharmProjects/axi4-cores/uvm_4_dv/example_v2
# Command line: xsim -log session.log -mode tcl -source {xsim.dir/tb_sim/xsim_script.tcl}
# Log file: /home/imocanu/Public/PycharmProjects/axi4-cores/uvm_4_dv/example_v2/session.log
# Journal file: /home/imocanu/Public/PycharmProjects/axi4-cores/uvm_4_dv/example_v2/xsim.jou
#-----------------------------------------------------------
source xsim.dir/tb_sim/xsim_script.tcl
# xsim {tb_sim} -testplusarg UVM_TESTNAME=test_1011 -autoloadwcfg -runall
Time resolution is 1 ps
run -all
UVM_INFO /proj/xbuilds/SWIP/2021.1_0402_2220/installs/lin64/Vivado/2021.1/data/system_verilog/uvm_1.2/xlnx_uvm_package.sv(18601) @ 0: reporter [UVM/RELNOTES] 
      (Specify +UVM_NO_RELNOTES to turn off this notice)
  with `UVM_OBJECT_DO_NOT_NEED_CONSTRUCTOR undefined.

  You are using a version of the UVM library that has been compiled
  with `UVM_NO_DEPRECATED undefined.

  You are using a version of the UVM library that has been compiled

  ***********       IMPORTANT RELEASE NOTES         ************
----------------------------------------------------------------
(C) 2013-2014 NVIDIA Corporation
(C) 2011-2013 Cypress Semiconductor Corp.
(C) 2006-2014 Synopsys, Inc.
(C) 2007-2014 Cadence Design Systems, Inc.
(C) 2007-2014 Mentor Graphics Corporation


----------------------------------------------------------------

UVM_WARNING @ 0: reporter [TPRGED] Type name 'pattern_driver' already registered with factory. No string-based lookup support for multiple types with the same type name.
UVM_WARNING @ 0: reporter [TPRGED] Type name 'pattern_monitor' already registered with factory. No string-based lookup support for multiple types with the same type name.
UVM_WARNING @ 0: reporter [TPRGED] Type name 'pattern_agent' already registered with factory. No string-based lookup support for multiple types with the same type name.
UVM_WARNING @ 0: reporter [TPRGED] Type name 'pattern_scoreboard' already registered with factory. No string-based lookup support for multiple types with the same type name.
UVM_WARNING @ 0: reporter [TPRGED] Type name 'pattern_env' already registered with factory. No string-based lookup support for multiple types with the same type name.
UVM_WARNING @ 0: reporter [TPRGED] Type name 'pattern_seq_item' already registered with factory. No string-based lookup support for multiple types with the same type name.
UVM_WARNING @ 0: reporter [TPRGED] Type name 'pattern_sequence' already registered with factory. No string-based lookup support for multiple types with the same type name.
UVM_INFO /proj/xbuilds/SWIP/2021.1_0402_2220/installs/lin64/Vivado/2021.1/data/system_verilog/uvm_1.2/xlnx_uvm_package.sv(18648) @ 0: reporter [NO_DPI_TSTNAME] UVM_NO_DPI defined--getting UVM_TESTNAME directly, without DPI
UVM_INFO @ 0: reporter [RNTST] Running test test_1011...
UVM_INFO /proj/xbuilds/SWIP/2021.1_0402_2220/installs/lin64/Vivado/2021.1/data/system_verilog/uvm_1.2/xlnx_uvm_package.sv(20867) @ 0: reporter [UVM/COMP/NAMECHECK] This implementation of the component name checks requires DPI to be enabled
UVM_INFO sb/pattern_scoreboard.sv(31) @ 90000: uvm_test_top.e0.sb0 [SCBD] in=0 out=0 ref=0b1011 act=0b0
UVM_INFO sb/pattern_scoreboard.sv(31) @ 110000: uvm_test_top.e0.sb0 [SCBD] in=0 out=0 ref=0b1011 act=0b0
UVM_INFO sb/pattern_scoreboard.sv(31) @ 130000: uvm_test_top.e0.sb0 [SCBD] in=0 out=0 ref=0b1011 act=0b0
UVM_INFO sb/pattern_scoreboard.sv(31) @ 150000: uvm_test_top.e0.sb0 [SCBD] in=0 out=0 ref=0b1011 act=0b0
UVM_INFO sb/pattern_scoreboard.sv(31) @ 170000: uvm_test_top.e0.sb0 [SCBD] in=0 out=0 ref=0b1011 act=0b0
UVM_INFO sb/pattern_scoreboard.sv(31) @ 190000: uvm_test_top.e0.sb0 [SCBD] in=0 out=0 ref=0b1011 act=0b0
UVM_INFO sb/pattern_scoreboard.sv(31) @ 210000: uvm_test_top.e0.sb0 [SCBD] in=0 out=0 ref=0b1011 act=0b0
UVM_INFO sb/pattern_scoreboard.sv(31) @ 230000: uvm_test_top.e0.sb0 [SCBD] in=0 out=0 ref=0b1011 act=0b0
UVM_INFO sb/pattern_scoreboard.sv(31) @ 250000: uvm_test_top.e0.sb0 [SCBD] in=0 out=0 ref=0b1011 act=0b0
UVM_INFO sb/pattern_scoreboard.sv(31) @ 270000: uvm_test_top.e0.sb0 [SCBD] in=0 out=0 ref=0b1011 act=0b0
UVM_INFO sb/pattern_scoreboard.sv(31) @ 290000: uvm_test_top.e0.sb0 [SCBD] in=0 out=0 ref=0b1011 act=0b0
UVM_INFO sb/pattern_scoreboard.sv(31) @ 310000: uvm_test_top.e0.sb0 [SCBD] in=0 out=0 ref=0b1011 act=0b0
UVM_INFO sb/pattern_scoreboard.sv(31) @ 330000: uvm_test_top.e0.sb0 [SCBD] in=0 out=0 ref=0b1011 act=0b0
UVM_INFO sb/pattern_scoreboard.sv(31) @ 350000: uvm_test_top.e0.sb0 [SCBD] in=1 out=0 ref=0b1011 act=0b1
UVM_INFO sb/pattern_scoreboard.sv(31) @ 370000: uvm_test_top.e0.sb0 [SCBD] in=1 out=0 ref=0b1011 act=0b11
UVM_INFO sb/pattern_scoreboard.sv(31) @ 390000: uvm_test_top.e0.sb0 [SCBD] in=1 out=0 ref=0b1011 act=0b111
UVM_INFO sb/pattern_scoreboard.sv(31) @ 410000: uvm_test_top.e0.sb0 [SCBD] in=1 out=0 ref=0b1011 act=0b1111
UVM_INFO sb/pattern_scoreboard.sv(31) @ 430000: uvm_test_top.e0.sb0 [SCBD] in=0 out=0 ref=0b1011 act=0b1110
UVM_INFO sb/pattern_scoreboard.sv(31) @ 450000: uvm_test_top.e0.sb0 [SCBD] in=1 out=0 ref=0b1011 act=0b1101
UVM_INFO sb/pattern_scoreboard.sv(31) @ 470000: uvm_test_top.e0.sb0 [SCBD] in=1 out=0 ref=0b1011 act=0b1011
UVM_INFO sb/pattern_scoreboard.sv(48) @ 470000: uvm_test_top.e0.sb0 [SCBD] Pattern found to match, next out should be 1
UVM_INFO sb/pattern_scoreboard.sv(31) @ 490000: uvm_test_top.e0.sb0 [SCBD] in=0 out=1 ref=0b1011 act=0b110
UVM_INFO sb/pattern_scoreboard.sv(31) @ 510000: uvm_test_top.e0.sb0 [SCBD] in=0 out=0 ref=0b1011 act=0b1100
UVM_INFO sb/pattern_scoreboard.sv(31) @ 530000: uvm_test_top.e0.sb0 [SCBD] in=1 out=0 ref=0b1011 act=0b1001
UVM_INFO sb/pattern_scoreboard.sv(31) @ 550000: uvm_test_top.e0.sb0 [SCBD] in=1 out=0 ref=0b1011 act=0b11
UVM_INFO sb/pattern_scoreboard.sv(31) @ 570000: uvm_test_top.e0.sb0 [SCBD] in=1 out=0 ref=0b1011 act=0b111
UVM_INFO sb/pattern_scoreboard.sv(31) @ 590000: uvm_test_top.e0.sb0 [SCBD] in=1 out=0 ref=0b1011 act=0b1111
UVM_INFO sb/pattern_scoreboard.sv(31) @ 610000: uvm_test_top.e0.sb0 [SCBD] in=1 out=0 ref=0b1011 act=0b1111
UVM_INFO sb/pattern_scoreboard.sv(31) @ 630000: uvm_test_top.e0.sb0 [SCBD] in=1 out=0 ref=0b1011 act=0b1111
UVM_INFO sb/pattern_scoreboard.sv(31) @ 650000: uvm_test_top.e0.sb0 [SCBD] in=1 out=0 ref=0b1011 act=0b1111
UVM_INFO sb/pattern_scoreboard.sv(31) @ 670000: uvm_test_top.e0.sb0 [SCBD] in=1 out=0 ref=0b1011 act=0b1111
UVM_INFO sb/pattern_scoreboard.sv(31) @ 690000: uvm_test_top.e0.sb0 [SCBD] in=1 out=0 ref=0b1011 act=0b1111
UVM_INFO sb/pattern_scoreboard.sv(31) @ 710000: uvm_test_top.e0.sb0 [SCBD] in=0 out=0 ref=0b1011 act=0b1110
UVM_INFO sb/pattern_scoreboard.sv(31) @ 730000: uvm_test_top.e0.sb0 [SCBD] in=1 out=0 ref=0b1011 act=0b1101
UVM_INFO sb/pattern_scoreboard.sv(31) @ 750000: uvm_test_top.e0.sb0 [SCBD] in=1 out=0 ref=0b1011 act=0b1011
UVM_INFO sb/pattern_scoreboard.sv(48) @ 750000: uvm_test_top.e0.sb0 [SCBD] Pattern found to match, next out should be 1
UVM_INFO sb/pattern_scoreboard.sv(31) @ 770000: uvm_test_top.e0.sb0 [SCBD] in=1 out=1 ref=0b1011 act=0b111
UVM_INFO sb/pattern_scoreboard.sv(31) @ 790000: uvm_test_top.e0.sb0 [SCBD] in=1 out=0 ref=0b1011 act=0b1111
UVM_INFO sb/pattern_scoreboard.sv(31) @ 810000: uvm_test_top.e0.sb0 [SCBD] in=1 out=0 ref=0b1011 act=0b1111
UVM_INFO sb/pattern_scoreboard.sv(31) @ 830000: uvm_test_top.e0.sb0 [SCBD] in=1 out=0 ref=0b1011 act=0b1111
UVM_INFO sb/pattern_scoreboard.sv(31) @ 850000: uvm_test_top.e0.sb0 [SCBD] in=1 out=0 ref=0b1011 act=0b1111
UVM_INFO sb/pattern_scoreboard.sv(31) @ 870000: uvm_test_top.e0.sb0 [SCBD] in=1 out=0 ref=0b1011 act=0b1111
UVM_INFO sb/pattern_scoreboard.sv(31) @ 890000: uvm_test_top.e0.sb0 [SCBD] in=1 out=0 ref=0b1011 act=0b1111
UVM_INFO sb/pattern_scoreboard.sv(31) @ 910000: uvm_test_top.e0.sb0 [SCBD] in=1 out=0 ref=0b1011 act=0b1111
UVM_INFO sb/pattern_scoreboard.sv(31) @ 930000: uvm_test_top.e0.sb0 [SCBD] in=1 out=0 ref=0b1011 act=0b1111
UVM_INFO sb/pattern_scoreboard.sv(31) @ 950000: uvm_test_top.e0.sb0 [SCBD] in=1 out=0 ref=0b1011 act=0b1111
UVM_INFO sb/pattern_scoreboard.sv(31) @ 970000: uvm_test_top.e0.sb0 [SCBD] in=1 out=0 ref=0b1011 act=0b1111
UVM_INFO sb/pattern_scoreboard.sv(31) @ 990000: uvm_test_top.e0.sb0 [SCBD] in=1 out=0 ref=0b1011 act=0b1111
UVM_INFO sb/pattern_scoreboard.sv(31) @ 1010000: uvm_test_top.e0.sb0 [SCBD] in=1 out=0 ref=0b1011 act=0b1111
UVM_INFO sb/pattern_scoreboard.sv(31) @ 1030000: uvm_test_top.e0.sb0 [SCBD] in=1 out=0 ref=0b1011 act=0b1111
UVM_INFO sb/pattern_scoreboard.sv(31) @ 1050000: uvm_test_top.e0.sb0 [SCBD] in=1 out=0 ref=0b1011 act=0b1111
UVM_INFO sb/pattern_scoreboard.sv(31) @ 1070000: uvm_test_top.e0.sb0 [SCBD] in=1 out=0 ref=0b1011 act=0b1111
UVM_INFO sb/pattern_scoreboard.sv(31) @ 1090000: uvm_test_top.e0.sb0 [SCBD] in=1 out=0 ref=0b1011 act=0b1111
UVM_INFO sb/pattern_scoreboard.sv(31) @ 1110000: uvm_test_top.e0.sb0 [SCBD] in=1 out=0 ref=0b1011 act=0b1111
UVM_INFO sb/pattern_scoreboard.sv(31) @ 1130000: uvm_test_top.e0.sb0 [SCBD] in=1 out=0 ref=0b1011 act=0b1111
UVM_INFO sb/pattern_scoreboard.sv(31) @ 1150000: uvm_test_top.e0.sb0 [SCBD] in=1 out=0 ref=0b1011 act=0b1111
UVM_INFO sb/pattern_scoreboard.sv(31) @ 1170000: uvm_test_top.e0.sb0 [SCBD] in=1 out=0 ref=0b1011 act=0b1111
UVM_INFO sb/pattern_scoreboard.sv(31) @ 1190000: uvm_test_top.e0.sb0 [SCBD] in=1 out=0 ref=0b1011 act=0b1111
UVM_INFO sb/pattern_scoreboard.sv(31) @ 1210000: uvm_test_top.e0.sb0 [SCBD] in=1 out=0 ref=0b1011 act=0b1111
UVM_INFO sb/pattern_scoreboard.sv(31) @ 1230000: uvm_test_top.e0.sb0 [SCBD] in=1 out=0 ref=0b1011 act=0b1111
UVM_INFO sb/pattern_scoreboard.sv(31) @ 1250000: uvm_test_top.e0.sb0 [SCBD] in=1 out=0 ref=0b1011 act=0b1111
UVM_INFO sb/pattern_scoreboard.sv(31) @ 1270000: uvm_test_top.e0.sb0 [SCBD] in=0 out=0 ref=0b1011 act=0b1110
UVM_INFO sb/pattern_scoreboard.sv(31) @ 1290000: uvm_test_top.e0.sb0 [SCBD] in=1 out=0 ref=0b1011 act=0b1101
UVM_INFO sb/pattern_scoreboard.sv(31) @ 1310000: uvm_test_top.e0.sb0 [SCBD] in=0 out=0 ref=0b1011 act=0b1010
UVM_INFO sb/pattern_scoreboard.sv(31) @ 1330000: uvm_test_top.e0.sb0 [SCBD] in=1 out=0 ref=0b1011 act=0b101
UVM_INFO sb/pattern_scoreboard.sv(31) @ 1350000: uvm_test_top.e0.sb0 [SCBD] in=0 out=0 ref=0b1011 act=0b1010
UVM_INFO sb/pattern_scoreboard.sv(31) @ 1370000: uvm_test_top.e0.sb0 [SCBD] in=1 out=0 ref=0b1011 act=0b101
UVM_INFO sb/pattern_scoreboard.sv(31) @ 1390000: uvm_test_top.e0.sb0 [SCBD] in=1 out=0 ref=0b1011 act=0b1011
UVM_INFO sb/pattern_scoreboard.sv(48) @ 1390000: uvm_test_top.e0.sb0 [SCBD] Pattern found to match, next out should be 1
UVM_INFO sb/pattern_scoreboard.sv(31) @ 1410000: uvm_test_top.e0.sb0 [SCBD] in=1 out=1 ref=0b1011 act=0b111
UVM_INFO sb/pattern_scoreboard.sv(31) @ 1430000: uvm_test_top.e0.sb0 [SCBD] in=1 out=0 ref=0b1011 act=0b1111
UVM_INFO sb/pattern_scoreboard.sv(31) @ 1450000: uvm_test_top.e0.sb0 [SCBD] in=1 out=0 ref=0b1011 act=0b1111
UVM_INFO sb/pattern_scoreboard.sv(31) @ 1470000: uvm_test_top.e0.sb0 [SCBD] in=0 out=0 ref=0b1011 act=0b1110
UVM_INFO sb/pattern_scoreboard.sv(31) @ 1490000: uvm_test_top.e0.sb0 [SCBD] in=1 out=0 ref=0b1011 act=0b1101
UVM_INFO sb/pattern_scoreboard.sv(31) @ 1510000: uvm_test_top.e0.sb0 [SCBD] in=1 out=0 ref=0b1011 act=0b1011
UVM_INFO sb/pattern_scoreboard.sv(48) @ 1510000: uvm_test_top.e0.sb0 [SCBD] Pattern found to match, next out should be 1
UVM_INFO sb/pattern_scoreboard.sv(31) @ 1530000: uvm_test_top.e0.sb0 [SCBD] in=1 out=1 ref=0b1011 act=0b111
UVM_INFO sb/pattern_scoreboard.sv(31) @ 1550000: uvm_test_top.e0.sb0 [SCBD] in=1 out=0 ref=0b1011 act=0b1111
UVM_INFO sb/pattern_scoreboard.sv(31) @ 1570000: uvm_test_top.e0.sb0 [SCBD] in=1 out=0 ref=0b1011 act=0b1111
UVM_INFO sb/pattern_scoreboard.sv(31) @ 1590000: uvm_test_top.e0.sb0 [SCBD] in=1 out=0 ref=0b1011 act=0b1111
UVM_INFO sb/pattern_scoreboard.sv(31) @ 1610000: uvm_test_top.e0.sb0 [SCBD] in=1 out=0 ref=0b1011 act=0b1111
UVM_INFO sb/pattern_scoreboard.sv(31) @ 1630000: uvm_test_top.e0.sb0 [SCBD] in=1 out=0 ref=0b1011 act=0b1111
UVM_INFO sb/pattern_scoreboard.sv(31) @ 1650000: uvm_test_top.e0.sb0 [SCBD] in=1 out=0 ref=0b1011 act=0b1111
UVM_INFO sb/pattern_scoreboard.sv(31) @ 1670000: uvm_test_top.e0.sb0 [SCBD] in=1 out=0 ref=0b1011 act=0b1111
UVM_INFO sb/pattern_scoreboard.sv(31) @ 1690000: uvm_test_top.e0.sb0 [SCBD] in=1 out=0 ref=0b1011 act=0b1111
UVM_INFO sb/pattern_scoreboard.sv(31) @ 1710000: uvm_test_top.e0.sb0 [SCBD] in=1 out=0 ref=0b1011 act=0b1111
UVM_INFO sb/pattern_scoreboard.sv(31) @ 1730000: uvm_test_top.e0.sb0 [SCBD] in=1 out=0 ref=0b1011 act=0b1111
UVM_INFO sb/pattern_scoreboard.sv(31) @ 1750000: uvm_test_top.e0.sb0 [SCBD] in=0 out=0 ref=0b1011 act=0b1110
UVM_INFO sb/pattern_scoreboard.sv(31) @ 1770000: uvm_test_top.e0.sb0 [SCBD] in=1 out=0 ref=0b1011 act=0b1101
UVM_INFO sb/pattern_scoreboard.sv(31) @ 1790000: uvm_test_top.e0.sb0 [SCBD] in=1 out=0 ref=0b1011 act=0b1011
UVM_INFO sb/pattern_scoreboard.sv(48) @ 1790000: uvm_test_top.e0.sb0 [SCBD] Pattern found to match, next out should be 1
UVM_INFO sb/pattern_scoreboard.sv(31) @ 1810000: uvm_test_top.e0.sb0 [SCBD] in=1 out=1 ref=0b1011 act=0b111
UVM_INFO sb/pattern_scoreboard.sv(31) @ 1830000: uvm_test_top.e0.sb0 [SCBD] in=1 out=0 ref=0b1011 act=0b1111
UVM_INFO sb/pattern_scoreboard.sv(31) @ 1850000: uvm_test_top.e0.sb0 [SCBD] in=1 out=0 ref=0b1011 act=0b1111
UVM_INFO sb/pattern_scoreboard.sv(31) @ 1870000: uvm_test_top.e0.sb0 [SCBD] in=1 out=0 ref=0b1011 act=0b1111
UVM_INFO sb/pattern_scoreboard.sv(31) @ 1890000: uvm_test_top.e0.sb0 [SCBD] in=0 out=0 ref=0b1011 act=0b1110
UVM_INFO sb/pattern_scoreboard.sv(31) @ 1910000: uvm_test_top.e0.sb0 [SCBD] in=1 out=0 ref=0b1011 act=0b1101
UVM_INFO sb/pattern_scoreboard.sv(31) @ 1930000: uvm_test_top.e0.sb0 [SCBD] in=1 out=0 ref=0b1011 act=0b1011
UVM_INFO sb/pattern_scoreboard.sv(48) @ 1930000: uvm_test_top.e0.sb0 [SCBD] Pattern found to match, next out should be 1
UVM_INFO sb/pattern_scoreboard.sv(31) @ 1950000: uvm_test_top.e0.sb0 [SCBD] in=1 out=1 ref=0b1011 act=0b111
UVM_INFO sb/pattern_scoreboard.sv(31) @ 1970000: uvm_test_top.e0.sb0 [SCBD] in=1 out=0 ref=0b1011 act=0b1111
UVM_INFO sb/pattern_scoreboard.sv(31) @ 1990000: uvm_test_top.e0.sb0 [SCBD] in=1 out=0 ref=0b1011 act=0b1111
UVM_INFO sb/pattern_scoreboard.sv(31) @ 2010000: uvm_test_top.e0.sb0 [SCBD] in=1 out=0 ref=0b1011 act=0b1111
UVM_INFO sb/pattern_scoreboard.sv(31) @ 2030000: uvm_test_top.e0.sb0 [SCBD] in=1 out=0 ref=0b1011 act=0b1111
UVM_INFO sb/pattern_scoreboard.sv(31) @ 2050000: uvm_test_top.e0.sb0 [SCBD] in=1 out=0 ref=0b1011 act=0b1111
UVM_INFO sb/pattern_scoreboard.sv(31) @ 2070000: uvm_test_top.e0.sb0 [SCBD] in=1 out=0 ref=0b1011 act=0b1111
UVM_INFO sb/pattern_scoreboard.sv(31) @ 2090000: uvm_test_top.e0.sb0 [SCBD] in=1 out=0 ref=0b1011 act=0b1111
UVM_INFO sb/pattern_scoreboard.sv(31) @ 2110000: uvm_test_top.e0.sb0 [SCBD] in=1 out=0 ref=0b1011 act=0b1111
UVM_INFO sb/pattern_scoreboard.sv(31) @ 2130000: uvm_test_top.e0.sb0 [SCBD] in=1 out=0 ref=0b1011 act=0b1111
UVM_INFO sb/pattern_scoreboard.sv(31) @ 2150000: uvm_test_top.e0.sb0 [SCBD] in=1 out=0 ref=0b1011 act=0b1111
UVM_INFO sb/pattern_scoreboard.sv(31) @ 2170000: uvm_test_top.e0.sb0 [SCBD] in=1 out=0 ref=0b1011 act=0b1111
UVM_INFO sb/pattern_scoreboard.sv(31) @ 2190000: uvm_test_top.e0.sb0 [SCBD] in=1 out=0 ref=0b1011 act=0b1111
UVM_INFO sb/pattern_scoreboard.sv(31) @ 2210000: uvm_test_top.e0.sb0 [SCBD] in=1 out=0 ref=0b1011 act=0b1111
UVM_INFO sb/pattern_scoreboard.sv(31) @ 2230000: uvm_test_top.e0.sb0 [SCBD] in=1 out=0 ref=0b1011 act=0b1111
UVM_INFO sb/pattern_scoreboard.sv(31) @ 2250000: uvm_test_top.e0.sb0 [SCBD] in=0 out=0 ref=0b1011 act=0b1110
UVM_INFO sb/pattern_scoreboard.sv(31) @ 2270000: uvm_test_top.e0.sb0 [SCBD] in=0 out=0 ref=0b1011 act=0b1100
UVM_INFO sb/pattern_scoreboard.sv(31) @ 2290000: uvm_test_top.e0.sb0 [SCBD] in=0 out=0 ref=0b1011 act=0b1000
UVM_INFO sb/pattern_scoreboard.sv(31) @ 2310000: uvm_test_top.e0.sb0 [SCBD] in=0 out=0 ref=0b1011 act=0b0
UVM_INFO sb/pattern_scoreboard.sv(31) @ 2330000: uvm_test_top.e0.sb0 [SCBD] in=1 out=0 ref=0b1011 act=0b1
UVM_INFO sb/pattern_scoreboard.sv(31) @ 2350000: uvm_test_top.e0.sb0 [SCBD] in=0 out=0 ref=0b1011 act=0b10
UVM_INFO sb/pattern_scoreboard.sv(31) @ 2370000: uvm_test_top.e0.sb0 [SCBD] in=1 out=0 ref=0b1011 act=0b101
UVM_INFO sb/pattern_scoreboard.sv(31) @ 2390000: uvm_test_top.e0.sb0 [SCBD] in=1 out=0 ref=0b1011 act=0b1011
UVM_INFO sb/pattern_scoreboard.sv(48) @ 2390000: uvm_test_top.e0.sb0 [SCBD] Pattern found to match, next out should be 1
UVM_INFO sb/pattern_scoreboard.sv(31) @ 2410000: uvm_test_top.e0.sb0 [SCBD] in=0 out=1 ref=0b1011 act=0b110
UVM_INFO sb/pattern_scoreboard.sv(31) @ 2430000: uvm_test_top.e0.sb0 [SCBD] in=1 out=0 ref=0b1011 act=0b1101
UVM_INFO sb/pattern_scoreboard.sv(31) @ 2450000: uvm_test_top.e0.sb0 [SCBD] in=1 out=0 ref=0b1011 act=0b1011
UVM_INFO sb/pattern_scoreboard.sv(48) @ 2450000: uvm_test_top.e0.sb0 [SCBD] Pattern found to match, next out should be 1
UVM_INFO sb/pattern_scoreboard.sv(31) @ 2470000: uvm_test_top.e0.sb0 [SCBD] in=1 out=1 ref=0b1011 act=0b111
UVM_INFO sb/pattern_scoreboard.sv(31) @ 2490000: uvm_test_top.e0.sb0 [SCBD] in=1 out=0 ref=0b1011 act=0b1111
UVM_INFO sb/pattern_scoreboard.sv(31) @ 2510000: uvm_test_top.e0.sb0 [SCBD] in=1 out=0 ref=0b1011 act=0b1111
UVM_INFO sb/pattern_scoreboard.sv(31) @ 2530000: uvm_test_top.e0.sb0 [SCBD] in=1 out=0 ref=0b1011 act=0b1111
UVM_INFO sb/pattern_scoreboard.sv(31) @ 2550000: uvm_test_top.e0.sb0 [SCBD] in=0 out=0 ref=0b1011 act=0b1110
UVM_INFO sb/pattern_scoreboard.sv(31) @ 2570000: uvm_test_top.e0.sb0 [SCBD] in=1 out=0 ref=0b1011 act=0b1101
UVM_INFO sb/pattern_scoreboard.sv(31) @ 2590000: uvm_test_top.e0.sb0 [SCBD] in=1 out=0 ref=0b1011 act=0b1011
UVM_INFO sb/pattern_scoreboard.sv(48) @ 2590000: uvm_test_top.e0.sb0 [SCBD] Pattern found to match, next out should be 1
UVM_INFO sb/pattern_scoreboard.sv(31) @ 2610000: uvm_test_top.e0.sb0 [SCBD] in=1 out=1 ref=0b1011 act=0b111
UVM_INFO sb/pattern_scoreboard.sv(31) @ 2630000: uvm_test_top.e0.sb0 [SCBD] in=1 out=0 ref=0b1011 act=0b1111
UVM_INFO sb/pattern_scoreboard.sv(31) @ 2650000: uvm_test_top.e0.sb0 [SCBD] in=1 out=0 ref=0b1011 act=0b1111
UVM_INFO sb/pattern_scoreboard.sv(31) @ 2670000: uvm_test_top.e0.sb0 [SCBD] in=1 out=0 ref=0b1011 act=0b1111
UVM_INFO sb/pattern_scoreboard.sv(31) @ 2690000: uvm_test_top.e0.sb0 [SCBD] in=1 out=0 ref=0b1011 act=0b1111
UVM_INFO sb/pattern_scoreboard.sv(31) @ 2710000: uvm_test_top.e0.sb0 [SCBD] in=0 out=0 ref=0b1011 act=0b1110
UVM_INFO sb/pattern_scoreboard.sv(31) @ 2730000: uvm_test_top.e0.sb0 [SCBD] in=1 out=0 ref=0b1011 act=0b1101
UVM_INFO sb/pattern_scoreboard.sv(31) @ 2750000: uvm_test_top.e0.sb0 [SCBD] in=1 out=0 ref=0b1011 act=0b1011
UVM_INFO sb/pattern_scoreboard.sv(48) @ 2750000: uvm_test_top.e0.sb0 [SCBD] Pattern found to match, next out should be 1
UVM_INFO sb/pattern_scoreboard.sv(31) @ 2770000: uvm_test_top.e0.sb0 [SCBD] in=1 out=1 ref=0b1011 act=0b111
UVM_INFO sb/pattern_scoreboard.sv(31) @ 2790000: uvm_test_top.e0.sb0 [SCBD] in=1 out=0 ref=0b1011 act=0b1111
UVM_INFO sb/pattern_scoreboard.sv(31) @ 2810000: uvm_test_top.e0.sb0 [SCBD] in=1 out=0 ref=0b1011 act=0b1111
UVM_INFO sb/pattern_scoreboard.sv(31) @ 2830000: uvm_test_top.e0.sb0 [SCBD] in=1 out=0 ref=0b1011 act=0b1111
UVM_INFO sb/pattern_scoreboard.sv(31) @ 2850000: uvm_test_top.e0.sb0 [SCBD] in=0 out=0 ref=0b1011 act=0b1110
UVM_INFO sb/pattern_scoreboard.sv(31) @ 2870000: uvm_test_top.e0.sb0 [SCBD] in=1 out=0 ref=0b1011 act=0b1101
UVM_INFO sb/pattern_scoreboard.sv(31) @ 2890000: uvm_test_top.e0.sb0 [SCBD] in=0 out=0 ref=0b1011 act=0b1010
UVM_INFO sb/pattern_scoreboard.sv(31) @ 2910000: uvm_test_top.e0.sb0 [SCBD] in=1 out=0 ref=0b1011 act=0b101
UVM_INFO sb/pattern_scoreboard.sv(31) @ 2930000: uvm_test_top.e0.sb0 [SCBD] in=0 out=0 ref=0b1011 act=0b1010
UVM_INFO sb/pattern_scoreboard.sv(31) @ 2950000: uvm_test_top.e0.sb0 [SCBD] in=1 out=0 ref=0b1011 act=0b101
UVM_INFO sb/pattern_scoreboard.sv(31) @ 2970000: uvm_test_top.e0.sb0 [SCBD] in=1 out=0 ref=0b1011 act=0b1011
UVM_INFO sb/pattern_scoreboard.sv(48) @ 2970000: uvm_test_top.e0.sb0 [SCBD] Pattern found to match, next out should be 1
UVM_INFO sb/pattern_scoreboard.sv(31) @ 2990000: uvm_test_top.e0.sb0 [SCBD] in=0 out=1 ref=0b1011 act=0b110
UVM_INFO sb/pattern_scoreboard.sv(31) @ 3010000: uvm_test_top.e0.sb0 [SCBD] in=1 out=0 ref=0b1011 act=0b1101
UVM_INFO sb/pattern_scoreboard.sv(31) @ 3030000: uvm_test_top.e0.sb0 [SCBD] in=1 out=0 ref=0b1011 act=0b1011
UVM_INFO sb/pattern_scoreboard.sv(48) @ 3030000: uvm_test_top.e0.sb0 [SCBD] Pattern found to match, next out should be 1
UVM_INFO sb/pattern_scoreboard.sv(31) @ 3050000: uvm_test_top.e0.sb0 [SCBD] in=1 out=1 ref=0b1011 act=0b111
UVM_INFO sb/pattern_scoreboard.sv(31) @ 3070000: uvm_test_top.e0.sb0 [SCBD] in=1 out=0 ref=0b1011 act=0b1111
UVM_INFO sb/pattern_scoreboard.sv(31) @ 3090000: uvm_test_top.e0.sb0 [SCBD] in=1 out=0 ref=0b1011 act=0b1111
UVM_INFO sb/pattern_scoreboard.sv(31) @ 3110000: uvm_test_top.e0.sb0 [SCBD] in=1 out=0 ref=0b1011 act=0b1111
UVM_INFO sb/pattern_scoreboard.sv(31) @ 3130000: uvm_test_top.e0.sb0 [SCBD] in=1 out=0 ref=0b1011 act=0b1111
UVM_INFO sb/pattern_scoreboard.sv(31) @ 3150000: uvm_test_top.e0.sb0 [SCBD] in=1 out=0 ref=0b1011 act=0b1111
UVM_INFO sb/pattern_scoreboard.sv(31) @ 3170000: uvm_test_top.e0.sb0 [SCBD] in=1 out=0 ref=0b1011 act=0b1111
UVM_INFO sb/pattern_scoreboard.sv(31) @ 3190000: uvm_test_top.e0.sb0 [SCBD] in=1 out=0 ref=0b1011 act=0b1111
UVM_INFO sb/pattern_scoreboard.sv(31) @ 3210000: uvm_test_top.e0.sb0 [SCBD] in=0 out=0 ref=0b1011 act=0b1110
UVM_INFO sb/pattern_scoreboard.sv(31) @ 3230000: uvm_test_top.e0.sb0 [SCBD] in=1 out=0 ref=0b1011 act=0b1101
UVM_INFO sb/pattern_scoreboard.sv(31) @ 3250000: uvm_test_top.e0.sb0 [SCBD] in=1 out=0 ref=0b1011 act=0b1011
UVM_INFO sb/pattern_scoreboard.sv(48) @ 3250000: uvm_test_top.e0.sb0 [SCBD] Pattern found to match, next out should be 1
UVM_INFO sb/pattern_scoreboard.sv(31) @ 3270000: uvm_test_top.e0.sb0 [SCBD] in=1 out=1 ref=0b1011 act=0b111
UVM_INFO sb/pattern_scoreboard.sv(31) @ 3290000: uvm_test_top.e0.sb0 [SCBD] in=1 out=0 ref=0b1011 act=0b1111
UVM_INFO sb/pattern_scoreboard.sv(31) @ 3310000: uvm_test_top.e0.sb0 [SCBD] in=0 out=0 ref=0b1011 act=0b1110
UVM_INFO sb/pattern_scoreboard.sv(31) @ 3330000: uvm_test_top.e0.sb0 [SCBD] in=1 out=0 ref=0b1011 act=0b1101
UVM_INFO sb/pattern_scoreboard.sv(31) @ 3350000: uvm_test_top.e0.sb0 [SCBD] in=1 out=0 ref=0b1011 act=0b1011
UVM_INFO sb/pattern_scoreboard.sv(48) @ 3350000: uvm_test_top.e0.sb0 [SCBD] Pattern found to match, next out should be 1
UVM_INFO sb/pattern_scoreboard.sv(31) @ 3370000: uvm_test_top.e0.sb0 [SCBD] in=1 out=1 ref=0b1011 act=0b111
